Practical Generative Art with R and ggplot2: drawing with data - 4 Introducing Flow Fields
…
4.1.1 Building a fixed angle grid

Let’s start by building a grid with a fixed angle. This means that all coordinates in the grid will have the exact same angle value. So the angle is “fixed”, or “constant” across the grid.

To build such a grid, simply use a constant value across your matrix or tibble. In the example below, we are creating a 50x50 grid filled with the angle \(\pi/4\).

n <- 50
fixed_angle <- pi / 4
grid <- build_grid_df(fixed_angle, n)
grid

# A tibble: 2,500 × 3
       x     y value
   <int> <int> <dbl>
 1     1     1 0.785
 2     1     2 0.785
 3     1     3 0.785
 4     1     4 0.785
 5     1     5 0.785
 6     1     6 0.785
 7     1     7 0.785
 8     1     8 0.785
 9     1     9 0.785
10     1    10 0.785
# ℹ 2,490 more rows
…
In this function, we use the .id argument to create an index column in the output tibble. This new column (called line_id) will contain an index that identifies the lines from each one of the 300 objects that were created and merged during the process of applying draw_curve() to each of the 300 starting points.

curves <- map_dfr(
  .x = starts,
  .f= draw_curve,
  angles = angles,
  n_steps = n_steps,
  step_length = step_length,
  .id = "line_id"
)

curves

# A tibble: 8,101 × 3
   line_id     x     y
   <chr>   <dbl> <dbl>
 1 1       39.2   48.5
 2 1       39.4   48.9
 3 1       39.6   49.4
 4 1       39.8   49.8
 5 1       40.0   50.3
 6 2        6.78  45.5
 7 2        6.59  45.9
 8 2        6.40  46.4
 9 2        6.19  46.8
10 2        5.98  47.3
# ℹ 8,091 more rows
…
